<?xml version="1.0" encoding="UTF-8"?>
<svg xmlns="http://www.w3.org/2000/svg" xmlns:xlink="http://www.w3.org/1999/xlink" width="166.434" height="50.114" viewBox="0 0 166.434 50.114">
<defs>
<g>
<g id="glyph-0-0">
</g>
<g id="glyph-0-1">
<path d="M 4.078125 -2.296875 L 6.859375 -2.296875 C 7 -2.296875 7.1875 -2.296875 7.1875 -2.5 C 7.1875 -2.6875 7 -2.6875 6.859375 -2.6875 L 4.078125 -2.6875 L 4.078125 -5.484375 C 4.078125 -5.625 4.078125 -5.8125 3.875 -5.8125 C 3.671875 -5.8125 3.671875 -5.625 3.671875 -5.484375 L 3.671875 -2.6875 L 0.890625 -2.6875 C 0.75 -2.6875 0.5625 -2.6875 0.5625 -2.5 C 0.5625 -2.296875 0.75 -2.296875 0.890625 -2.296875 L 3.671875 -2.296875 L 3.671875 0.5 C 3.671875 0.640625 3.671875 0.828125 3.875 0.828125 C 4.078125 0.828125 4.078125 0.640625 4.078125 0.5 Z M 4.078125 -2.296875 "/>
</g>
</g>
<clipPath id="clip-0">
<path clip-rule="nonzero" d="M 7 1 L 14 1 L 14 8 L 7 8 Z M 7 1 "/>
</clipPath>
<clipPath id="clip-1">
<path clip-rule="nonzero" d="M 13.539062 4.683594 C 13.539062 3.03125 12.203125 1.691406 10.550781 1.691406 C 8.898438 1.691406 7.5625 3.03125 7.5625 4.683594 C 7.5625 6.332031 8.898438 7.671875 10.550781 7.671875 C 12.203125 7.671875 13.539062 6.332031 13.539062 4.683594 Z M 13.539062 4.683594 "/>
</clipPath>
<clipPath id="clip-2">
<path clip-rule="nonzero" d="M 12 14 L 38 14 L 38 50.113281 L 12 50.113281 Z M 12 14 "/>
</clipPath>
<clipPath id="clip-3">
<path clip-rule="nonzero" d="M 0 13 L 51 13 L 51 50.113281 L 0 50.113281 Z M 0 13 "/>
</clipPath>
<clipPath id="clip-4">
<path clip-rule="nonzero" d="M 66 1 L 73 1 L 73 8 L 66 8 Z M 66 1 "/>
</clipPath>
<clipPath id="clip-5">
<path clip-rule="nonzero" d="M 72.082031 4.683594 C 72.082031 3.03125 70.742188 1.691406 69.09375 1.691406 C 67.441406 1.691406 66.105469 3.03125 66.105469 4.683594 C 66.105469 6.332031 67.441406 7.671875 69.09375 7.671875 C 70.742188 7.671875 72.082031 6.332031 72.082031 4.683594 Z M 72.082031 4.683594 "/>
</clipPath>
<clipPath id="clip-6">
<path clip-rule="nonzero" d="M 43 14 L 81 14 L 81 50.113281 L 43 50.113281 Z M 43 14 "/>
</clipPath>
<clipPath id="clip-7">
<path clip-rule="nonzero" d="M 35 12 L 87 12 L 87 50.113281 L 35 50.113281 Z M 35 12 "/>
</clipPath>
<clipPath id="clip-8">
<path clip-rule="nonzero" d="M 57 14 L 95 14 L 95 50.113281 L 57 50.113281 Z M 57 14 "/>
</clipPath>
<clipPath id="clip-9">
<path clip-rule="nonzero" d="M 51 12 L 103 12 L 103 50.113281 L 51 50.113281 Z M 51 12 "/>
</clipPath>
<clipPath id="clip-10">
<path clip-rule="nonzero" d="M 103 2 L 110 2 L 110 9 L 103 9 Z M 103 2 "/>
</clipPath>
<clipPath id="clip-11">
<path clip-rule="nonzero" d="M 109.816406 5.25 C 109.816406 3.597656 108.480469 2.261719 106.828125 2.261719 C 105.179688 2.261719 103.839844 3.597656 103.839844 5.25 C 103.839844 6.898438 105.179688 8.238281 106.828125 8.238281 C 108.480469 8.238281 109.816406 6.898438 109.816406 5.25 Z M 109.816406 5.25 "/>
</clipPath>
<clipPath id="clip-12">
<path clip-rule="nonzero" d="M 123 0 L 166.433594 0 L 166.433594 33 L 123 33 Z M 123 0 "/>
</clipPath>
<clipPath id="clip-13">
<path clip-rule="nonzero" d="M 126 0 L 166.433594 0 L 166.433594 42 L 126 42 Z M 126 0 "/>
</clipPath>
</defs>
<g clip-path="url(#clip-0)">
<g clip-path="url(#clip-1)">
<path fill="none" stroke-width="0.3985" stroke-linecap="butt" stroke-linejoin="miter" stroke="rgb(94.900513%, 55.683899%, 0%)" stroke-opacity="1" stroke-miterlimit="10" d="M -11.184937 18.270125 L -17.1615 24.250594 M -17.1615 18.270125 L -11.184937 24.250594 " transform="matrix(1, 0, 0, -1, 24.724, 25.942)"/>
</g>
</g>
<path fill="none" stroke-width="0.3985" stroke-linecap="butt" stroke-linejoin="miter" stroke="rgb(94.900513%, 55.683899%, 0%)" stroke-opacity="1" stroke-miterlimit="10" d="M -11.184937 21.258406 C -11.184937 22.91075 -12.520875 24.250594 -14.173219 24.250594 C -15.825562 24.250594 -17.1615 22.91075 -17.1615 21.258406 C -17.1615 19.609969 -15.825562 18.270125 -14.173219 18.270125 C -12.520875 18.270125 -11.184937 19.609969 -11.184937 21.258406 Z M -11.184937 21.258406 " transform="matrix(1, 0, 0, -1, 24.724, 25.942)"/>
<path fill="none" stroke-width="0.79701" stroke-linecap="butt" stroke-linejoin="miter" stroke="rgb(0%, 65.098572%, 92.156982%)" stroke-opacity="1" stroke-miterlimit="10" d="M -0.00134375 0.00059375 C -0.391969 0.590437 -1.766969 0.09825 -2.1615 0.688094 C -2.446656 1.113875 -2.114625 1.867781 -1.766969 2.652937 C -1.423219 3.442 -1.091187 4.192 -1.376344 4.617781 C -1.6615 5.047469 -2.481812 5.027937 -3.341187 5.012312 C -4.200562 4.992781 -5.020875 4.977156 -5.306031 5.402937 C -5.591187 5.832625 -5.259156 6.582625 -4.9115 7.371687 C -4.56775 8.156844 -4.235719 8.906844 -4.520875 9.336531 C -4.806031 9.762312 -5.626344 9.746687 -6.485719 9.727156 C -7.345094 9.711531 -8.165406 9.695906 -8.450562 10.121687 C -8.735719 10.547469 -8.403687 11.301375 -8.056031 12.086531 C -7.712281 12.875594 -7.38025 13.625594 -7.665406 14.051375 C -7.950562 14.481062 -8.770875 14.465437 -9.63025 14.445906 C -10.489625 14.426375 -11.309937 14.41075 -11.595094 14.840437 C -11.989625 15.430281 -11.00525 16.508406 -11.399781 17.09825 L -12.403687 18.606062 " transform="matrix(1, 0, 0, -1, 24.724, 25.942)"/>
<path fill="none" stroke-width="9.96277" stroke-linecap="butt" stroke-linejoin="miter" stroke="rgb(0%, 65.098572%, 92.156982%)" stroke-opacity="1" stroke-miterlimit="10" d="M 0.00683298 21.41701 L 21.418178 0.011694 L -0.000681187 -21.419965 " transform="matrix(-0.08875, -0.13312, -0.13312, 0.08875, 19.80867, 18.5689)"/>
<path fill="none" stroke-width="0.79701" stroke-linecap="butt" stroke-linejoin="miter" stroke="rgb(0%, 65.098572%, 92.156982%)" stroke-opacity="1" stroke-miterlimit="10" d="M 14.174438 21.258406 C 13.779906 20.668562 14.764281 19.590437 14.36975 19.000594 C 14.084594 18.574812 13.264281 18.590437 12.404906 18.606062 C 11.545531 18.625594 10.725219 18.641219 10.440063 18.215437 C 10.154906 17.78575 10.483031 17.03575 10.830688 16.246687 C 11.178344 15.461531 11.510375 14.711531 11.225219 14.281844 C 10.940063 13.856062 10.11975 13.871687 9.260375 13.891219 C 8.401 13.906844 7.580688 13.922469 7.295531 13.496687 C 7.010375 13.070906 7.3385 12.317 7.686156 11.531844 C 8.033813 10.742781 8.365844 9.992781 8.080688 9.567 C 7.795531 9.137312 6.975219 9.152937 6.115844 9.172469 C 5.256469 9.192 4.436156 9.207625 4.151 8.777937 C 3.865844 8.352156 4.193969 7.602156 4.541625 6.813094 C 4.889281 6.027937 5.221313 5.277937 4.936156 4.84825 C 4.651 4.422469 3.830688 4.438094 2.971313 4.457625 C 2.111938 4.47325 1.291625 4.488875 1.006469 4.063094 C 0.611938 3.47325 1.596313 2.391219 1.201781 1.801375 L -0.00134375 0.00059375 " transform="matrix(1, 0, 0, -1, 24.724, 25.942)"/>
<path fill="none" stroke-width="9.96277" stroke-linecap="butt" stroke-linejoin="miter" stroke="rgb(0%, 65.098572%, 92.156982%)" stroke-opacity="1" stroke-miterlimit="10" d="M -0.000906336 21.407881 L 21.424724 0.0100791 L 0.00660783 -21.429094 " transform="matrix(-0.08875, 0.13312, 0.13312, 0.08875, 32.92354, 13.64314)"/>
<path fill-rule="nonzero" fill="rgb(94.900513%, 55.683899%, 0%)" fill-opacity="1" d="M 40.316406 4.683594 C 40.316406 3.898438 39.679688 3.265625 38.898438 3.265625 C 38.113281 3.265625 37.480469 3.898438 37.480469 4.683594 C 37.480469 5.464844 38.113281 6.097656 38.898438 6.097656 C 39.679688 6.097656 40.316406 5.464844 40.316406 4.683594 Z M 40.316406 4.683594 "/>
<g clip-path="url(#clip-2)">
<path fill="none" stroke-width="0.79701" stroke-linecap="butt" stroke-linejoin="miter" stroke="rgb(0%, 65.098572%, 92.156982%)" stroke-opacity="1" stroke-miterlimit="10" d="M -0.00134375 -21.261125 C -0.00134375 -20.550188 -1.415406 -20.198625 -1.415406 -19.487688 C -1.415406 -18.975969 -0.724 -18.534563 -0.00134375 -18.069719 C 0.725219 -17.608781 1.416625 -17.167375 1.416625 -16.655656 C 1.416625 -16.140031 0.725219 -15.698625 -0.00134375 -15.237688 C -0.724 -14.772844 -1.415406 -14.331438 -1.415406 -13.819719 C -1.415406 -13.308 -0.724 -12.862688 -0.00134375 -12.40175 C 0.725219 -11.940813 1.416625 -11.499406 1.416625 -10.983781 C 1.416625 -10.472063 0.725219 -10.030656 -0.00134375 -9.565813 C -0.724 -9.104875 -1.415406 -8.663469 -1.415406 -8.15175 C -1.415406 -7.636125 -0.724 -7.194719 -0.00134375 -6.733781 C 0.725219 -6.268938 1.416625 -5.827531 1.416625 -5.315813 C 1.416625 -4.800188 0.725219 -4.358781 -0.00134375 -3.897844 C -0.724 -3.436906 -1.415406 -2.9955 -1.415406 -2.479875 C -1.415406 -1.772844 -0.00134375 -1.417375 -0.00134375 -0.710344 L -0.00134375 0.00059375 " transform="matrix(1, 0, 0, -1, 24.724, 25.942)"/>
</g>
<g clip-path="url(#clip-3)">
<path fill="none" stroke-width="9.96277" stroke-linecap="butt" stroke-linejoin="miter" stroke="rgb(0%, 65.098572%, 92.156982%)" stroke-opacity="1" stroke-miterlimit="10" d="M 0.002375 21.419531 L 21.413508 0.00839844 L 0.002375 -21.427148 " transform="matrix(0, -0.16, -0.16, 0, 24.724, 39.00038)"/>
</g>
<path fill-rule="nonzero" fill="rgb(94.900513%, 55.683899%, 0%)" fill-opacity="1" d="M 26.140625 47.203125 C 26.140625 46.417969 25.507812 45.785156 24.722656 45.785156 C 23.941406 45.785156 23.304688 46.417969 23.304688 47.203125 C 23.304688 47.984375 23.941406 48.621094 24.722656 48.621094 C 25.507812 48.621094 26.140625 47.984375 26.140625 47.203125 Z M 26.140625 47.203125 "/>
<g fill="rgb(0%, 0%, 0%)" fill-opacity="1">
<use xlink:href="#glyph-0-1" x="45.377" y="27.548"/>
</g>
<g clip-path="url(#clip-4)">
<g clip-path="url(#clip-5)">
<path fill="none" stroke-width="0.3985" stroke-linecap="butt" stroke-linejoin="miter" stroke="rgb(94.900513%, 55.683899%, 0%)" stroke-opacity="1" stroke-miterlimit="10" d="M 2.989031 18.270125 L -2.987531 24.250594 M -2.987531 18.270125 L 2.989031 24.250594 " transform="matrix(1, 0, 0, -1, 69.093, 25.942)"/>
</g>
</g>
<path fill="none" stroke-width="0.3985" stroke-linecap="butt" stroke-linejoin="miter" stroke="rgb(94.900513%, 55.683899%, 0%)" stroke-opacity="1" stroke-miterlimit="10" d="M 2.989031 21.258406 C 2.989031 22.91075 1.649187 24.250594 0.00075 24.250594 C -1.651594 24.250594 -2.987531 22.91075 -2.987531 21.258406 C -2.987531 19.609969 -1.651594 18.270125 0.00075 18.270125 C 1.649187 18.270125 2.989031 19.609969 2.989031 21.258406 Z M 2.989031 21.258406 " transform="matrix(1, 0, 0, -1, 69.093, 25.942)"/>
<path fill="none" stroke-width="0.79701" stroke-linecap="butt" stroke-linejoin="miter" stroke="rgb(0%, 65.098572%, 92.156982%)" stroke-opacity="1" stroke-miterlimit="10" d="M 0.00075 0.00059375 C 0.00075 0.707625 -1.417219 1.063094 -1.417219 1.770125 C -1.417219 2.28575 -0.725813 2.727156 0.00075 3.188094 C 0.727312 3.652937 1.418719 4.094344 1.418719 4.606062 C 1.418719 5.117781 0.727312 5.563094 0.00075 6.024031 C -0.725813 6.484969 -1.417219 6.926375 -1.417219 7.442 C -1.417219 7.953719 -0.725813 8.395125 0.00075 8.859969 C 0.727312 9.320906 1.418719 9.762312 1.418719 10.274031 C 1.418719 10.789656 0.727312 11.231062 0.00075 11.692 C -0.725813 12.156844 -1.417219 12.59825 -1.417219 13.109969 C -1.417219 13.621687 -0.725813 14.067 0.00075 14.527937 C 0.727312 14.988875 1.418719 15.430281 1.418719 15.945906 C 1.418719 16.652937 0.00075 17.008406 0.00075 17.715437 L 0.00075 18.070906 " transform="matrix(1, 0, 0, -1, 69.093, 25.942)"/>
<path fill="none" stroke-width="9.96277" stroke-linecap="butt" stroke-linejoin="miter" stroke="rgb(0%, 65.098572%, 92.156982%)" stroke-opacity="1" stroke-miterlimit="10" d="M 0.00516406 21.430859 L 21.416297 -0.0046875 L 0.00516406 -21.41582 " transform="matrix(0, -0.16, -0.16, 0, 69.093, 19.65317)"/>
<g clip-path="url(#clip-6)">
<path fill="none" stroke-width="0.79701" stroke-linecap="butt" stroke-linejoin="miter" stroke="rgb(0%, 65.098572%, 92.156982%)" stroke-opacity="1" stroke-miterlimit="10" d="M -14.175031 -21.261125 C -13.7805 -20.671281 -14.764875 -19.58925 -14.370344 -18.999406 C -14.085188 -18.573625 -13.264875 -18.58925 -12.4055 -18.604875 C -11.546125 -18.624406 -10.721906 -18.640031 -10.440656 -18.21425 C -10.1555 -17.788469 -10.483625 -17.034563 -10.831281 -16.249406 C -11.178938 -15.460344 -11.510969 -14.710344 -11.225813 -14.284563 C -10.940656 -13.854875 -10.120344 -13.8705 -9.260969 -13.890031 C -8.401594 -13.909563 -7.581281 -13.925188 -7.296125 -13.4955 C -7.010969 -13.069719 -7.339094 -12.319719 -7.68675 -11.530656 C -8.034406 -10.7455 -8.366438 -9.991594 -8.081281 -9.565813 C -7.796125 -9.140031 -6.975813 -9.155656 -6.116438 -9.171281 C -5.257063 -9.190813 -4.43675 -9.206438 -4.151594 -8.780656 C -3.866438 -8.354875 -4.194563 -7.600969 -4.542219 -6.815813 C -4.889875 -6.02675 -5.221906 -5.27675 -4.93675 -4.850969 C -4.651594 -4.421281 -3.831281 -4.436906 -2.971906 -4.456438 C -2.112531 -4.475969 -1.292219 -4.491594 -1.007063 -4.061906 C -0.612531 -3.472063 -1.596906 -2.393938 -1.202375 -1.804094 L 0.00075 0.00059375 " transform="matrix(1, 0, 0, -1, 69.093, 25.942)"/>
</g>
<g clip-path="url(#clip-7)">
<path fill="none" stroke-width="9.96277" stroke-linecap="butt" stroke-linejoin="miter" stroke="rgb(0%, 65.098572%, 92.156982%)" stroke-opacity="1" stroke-miterlimit="10" d="M 0.00321066 21.415086 L 21.408526 0.00374066 L 0.0107248 -21.421889 " transform="matrix(0.08875, -0.13312, -0.13312, -0.08875, 60.89346, 38.24086)"/>
</g>
<path fill-rule="nonzero" fill="rgb(94.900513%, 55.683899%, 0%)" fill-opacity="1" d="M 56.335938 47.203125 C 56.335938 46.417969 55.703125 45.785156 54.917969 45.785156 C 54.136719 45.785156 53.503906 46.417969 53.503906 47.203125 C 53.503906 47.984375 54.136719 48.621094 54.917969 48.621094 C 55.703125 48.621094 56.335938 47.984375 56.335938 47.203125 Z M 56.335938 47.203125 "/>
<g clip-path="url(#clip-8)">
<path fill="none" stroke-width="0.79701" stroke-linecap="butt" stroke-linejoin="miter" stroke="rgb(0%, 65.098572%, 92.156982%)" stroke-opacity="1" stroke-miterlimit="10" d="M 14.172625 -21.261125 C 13.782 -20.671281 12.403094 -21.163469 12.012469 -20.573625 C 11.727312 -20.143938 12.055437 -19.393938 12.403094 -18.604875 C 12.75075 -17.819719 13.082781 -17.069719 12.797625 -16.640031 C 12.512469 -16.21425 11.692156 -16.229875 10.832781 -16.249406 C 9.973406 -16.265031 9.153094 -16.280656 8.867937 -15.854875 C 8.582781 -15.429094 8.910906 -14.675188 9.258562 -13.890031 C 9.606219 -13.104875 9.93825 -12.350969 9.653094 -11.925188 C 9.367937 -11.499406 8.547625 -11.515031 7.68825 -11.530656 C 6.828875 -11.550188 6.008562 -11.565813 5.723406 -11.140031 C 5.43825 -10.710344 5.766375 -9.960344 6.114031 -9.171281 C 6.461687 -8.386125 6.793719 -7.636125 6.508562 -7.206438 C 6.223406 -6.780656 5.403094 -6.796281 4.543719 -6.815813 C 3.684344 -6.831438 2.864031 -6.847063 2.578875 -6.421281 C 2.293719 -5.9955 2.621844 -5.241594 2.9695 -4.456438 C 3.317156 -3.667375 3.649187 -2.917375 3.364031 -2.491594 C 2.9695 -1.90175 1.5945 -2.393938 1.203875 -1.804094 L 0.00075 0.00059375 " transform="matrix(1, 0, 0, -1, 69.093, 25.942)"/>
</g>
<g clip-path="url(#clip-9)">
<path fill="none" stroke-width="9.96277" stroke-linecap="butt" stroke-linejoin="miter" stroke="rgb(0%, 65.098572%, 92.156982%)" stroke-opacity="1" stroke-miterlimit="10" d="M 0.00552411 21.414089 L 21.416869 0.00877307 L -0.00199005 -21.422886 " transform="matrix(-0.08875, -0.13312, -0.13312, 0.08875, 77.29254, 38.24086)"/>
</g>
<path fill-rule="nonzero" fill="rgb(94.900513%, 55.683899%, 0%)" fill-opacity="1" d="M 84.683594 47.203125 C 84.683594 46.417969 84.050781 45.785156 83.265625 45.785156 C 82.484375 45.785156 81.847656 46.417969 81.847656 47.203125 C 81.847656 47.984375 82.484375 48.621094 83.265625 48.621094 C 84.050781 48.621094 84.683594 47.984375 84.683594 47.203125 Z M 84.683594 47.203125 "/>
<g fill="rgb(0%, 0%, 0%)" fill-opacity="1">
<use xlink:href="#glyph-0-1" x="87.896" y="27.548"/>
</g>
<g clip-path="url(#clip-10)">
<g clip-path="url(#clip-11)">
<path fill="none" stroke-width="0.3985" stroke-linecap="butt" stroke-linejoin="miter" stroke="rgb(94.900513%, 55.683899%, 0%)" stroke-opacity="1" stroke-miterlimit="10" d="M 2.987406 39.530719 L -2.989156 45.507281 M -2.989156 39.530719 L 2.987406 45.507281 " transform="matrix(1, 0, 0, -1, 106.829, 47.769)"/>
</g>
</g>
<path fill="none" stroke-width="0.3985" stroke-linecap="butt" stroke-linejoin="miter" stroke="rgb(94.900513%, 55.683899%, 0%)" stroke-opacity="1" stroke-miterlimit="10" d="M 2.987406 42.519 C 2.987406 44.171344 1.651469 45.507281 -0.000875 45.507281 C -1.649313 45.507281 -2.989156 44.171344 -2.989156 42.519 C -2.989156 40.870562 -1.649313 39.530719 -0.000875 39.530719 C 1.651469 39.530719 2.987406 40.870562 2.987406 42.519 Z M 2.987406 42.519 " transform="matrix(1, 0, 0, -1, 106.829, 47.769)"/>
<path fill="none" stroke-width="0.79701" stroke-linecap="butt" stroke-linejoin="miter" stroke="rgb(0%, 65.098572%, 92.156982%)" stroke-opacity="1" stroke-miterlimit="10" d="M 28.346781 28.347125 C 27.63975 28.3315 27.311625 26.909625 26.604594 26.894 C 26.088969 26.901812 25.659281 27.601031 25.206156 28.335406 C 24.756937 29.065875 24.32725 29.765094 23.811625 29.772906 C 23.299906 29.815875 22.803812 29.159625 22.284281 28.476031 C 21.76475 27.788531 21.268656 27.136187 20.756937 27.17525 C 20.253031 27.257281 19.924906 28.011187 19.585062 28.80025 C 19.241312 29.589312 18.913187 30.343219 18.409281 30.42525 C 17.909281 30.55025 17.311625 29.98775 16.686625 29.397906 C 16.057719 28.811969 15.460062 28.249469 14.963969 28.374469 C 14.479594 28.55025 14.299906 29.351031 14.112406 30.190875 C 13.928812 31.030719 13.749125 31.8315 13.26475 32.007281 C 12.803812 32.229937 12.104594 31.804156 11.370219 31.351031 C 10.63975 30.901812 9.940531 30.472125 9.479594 30.698687 C 9.042094 30.968219 9.030375 31.788531 9.018656 32.647906 C 9.006937 33.507281 8.995219 34.327594 8.557719 34.597125 C 8.147562 34.909625 7.378031 34.624469 6.573344 34.323687 C 5.768656 34.022906 4.995219 33.73775 4.588969 34.05025 C 4.206156 34.390094 4.335062 35.202594 4.475687 36.05025 C 4.616312 36.897906 4.745219 37.710406 4.366312 38.05025 C 4.311625 39.554156 3.049906 38.819781 2.553812 39.327594 L 1.9835 40.022906 " transform="matrix(1, 0, 0, -1, 106.829, 47.769)"/>
<path fill="none" stroke-width="9.96277" stroke-linecap="butt" stroke-linejoin="miter" stroke="rgb(0%, 65.098572%, 92.156982%)" stroke-opacity="1" stroke-miterlimit="10" d="M -0.00980674 21.416002 L 21.418961 0.00338447 L 0.00634295 -21.425383 " transform="matrix(-0.13838, -0.08029, -0.08029, 0.13838, 121.81579, 17.78176)"/>
<g clip-path="url(#clip-12)">
<path fill="none" stroke-width="0.79701" stroke-linecap="butt" stroke-linejoin="miter" stroke="rgb(0%, 65.098572%, 92.156982%)" stroke-opacity="1" stroke-miterlimit="10" d="M 56.694437 42.519 C 56.253031 41.964312 57.143656 40.808062 56.70225 40.253375 C 56.370219 39.858844 55.557719 39.968219 54.706156 40.085406 C 53.854594 40.202594 53.038187 40.311969 52.706156 39.917437 C 52.354594 39.546344 52.549906 38.749469 52.756937 37.917437 C 52.963969 37.0815 53.159281 36.284625 52.807719 35.913531 C 52.428812 35.565875 51.635844 35.776812 50.803812 35.999469 C 49.971781 36.222125 49.178812 36.436969 48.799906 36.089312 C 48.397562 35.772906 48.471781 34.9565 48.553812 34.101031 C 48.635844 33.245562 48.713969 32.42525 48.307719 32.11275 C 47.878031 31.8315 47.131937 32.171344 46.350687 32.530719 C 45.565531 32.890094 44.819437 33.229937 44.38975 32.952594 C 43.932719 32.714312 43.862406 31.894 43.788187 31.038531 C 43.713969 30.183062 43.643656 29.36275 43.186625 29.128375 C 42.713969 28.933062 42.042094 29.405719 41.338969 29.905719 C 40.63975 30.401812 39.967875 30.878375 39.491312 30.683062 C 39.003031 30.534625 38.780375 29.741656 38.549906 28.913531 C 38.323344 28.085406 38.100687 27.296344 37.6085 27.144 C 37.1085 27.034625 36.530375 27.616656 35.924906 28.229937 C 35.319437 28.839312 34.741312 29.421344 34.237406 29.311969 C 33.729594 29.241656 33.38975 28.495562 33.034281 27.710406 C 32.678812 26.929156 32.338969 26.179156 31.831156 26.108844 C 30.553812 27.026812 30.088969 28.409625 29.381937 28.354937 L 28.346781 28.347125 " transform="matrix(1, 0, 0, -1, 106.829, 47.769)"/>
</g>
<g clip-path="url(#clip-13)">
<path fill="none" stroke-width="9.96277" stroke-linecap="butt" stroke-linejoin="miter" stroke="rgb(0%, 65.098572%, 92.156982%)" stroke-opacity="1" stroke-miterlimit="10" d="M -0.00530215 21.4277 L 21.425289 -0.00120358 L 0.00486932 -21.4089 " transform="matrix(-0.15002, 0.05559, 0.05559, 0.15002, 152.35882, 15.57868)"/>
</g>
<path fill="none" stroke-width="0.79701" stroke-linecap="butt" stroke-linejoin="miter" stroke="rgb(0%, 65.098572%, 92.156982%)" stroke-opacity="1" stroke-miterlimit="10" d="M 28.346781 42.519 C 28.346781 41.811969 29.76475 41.4565 29.76475 40.749469 C 29.76475 40.233844 29.073344 39.792437 28.346781 39.3315 C 27.620219 38.870562 26.928812 38.42525 26.928812 37.913531 C 26.928812 37.401812 27.620219 36.960406 28.346781 36.495562 C 29.073344 36.034625 29.76475 35.593219 29.76475 35.077594 C 29.76475 34.565875 29.073344 34.124469 28.346781 33.663531 C 27.620219 33.198687 26.928812 32.757281 26.928812 32.245562 C 26.928812 31.534625 28.346781 31.183062 28.346781 30.472125 L 28.346781 28.347125 " transform="matrix(1, 0, 0, -1, 106.829, 47.769)"/>
<path fill="none" stroke-width="9.96277" stroke-linecap="butt" stroke-linejoin="miter" stroke="rgb(0%, 65.098572%, 92.156982%)" stroke-opacity="1" stroke-miterlimit="10" d="M 0.00474219 21.411016 L 21.415875 -0.000117187 L 0.00474219 -21.41125 " transform="matrix(0, 0.16, 0.16, 0, 135.1758, 9.19846)"/>
<path fill-rule="nonzero" fill="rgb(94.900513%, 55.683899%, 0%)" fill-opacity="1" d="M 164.941406 5.25 C 164.941406 4.464844 164.304688 3.832031 163.523438 3.832031 C 162.738281 3.832031 162.105469 4.464844 162.105469 5.25 C 162.105469 6.03125 162.738281 6.667969 163.523438 6.667969 C 164.304688 6.667969 164.941406 6.03125 164.941406 5.25 Z M 164.941406 5.25 "/>
<path fill-rule="nonzero" fill="rgb(94.900513%, 55.683899%, 0%)" fill-opacity="1" d="M 136.59375 5.25 C 136.59375 4.464844 135.957031 3.832031 135.175781 3.832031 C 134.394531 3.832031 133.757812 4.464844 133.757812 5.25 C 133.757812 6.03125 134.394531 6.667969 135.175781 6.667969 C 135.957031 6.667969 136.59375 6.03125 136.59375 5.25 Z M 136.59375 5.25 "/>
<path fill-rule="nonzero" fill="rgb(100%, 100%, 100%)" fill-opacity="1" d="M 107.113281 47.769531 C 107.113281 47.613281 106.984375 47.484375 106.828125 47.484375 C 106.671875 47.484375 106.546875 47.613281 106.546875 47.769531 C 106.546875 47.925781 106.671875 48.050781 106.828125 48.050781 C 106.984375 48.050781 107.113281 47.925781 107.113281 47.769531 Z M 107.113281 47.769531 "/>
</svg>
