<?xml version="1.0" encoding="UTF-8"?>
<svg xmlns="http://www.w3.org/2000/svg" xmlns:xlink="http://www.w3.org/1999/xlink" width="22.035" height="30.162" viewBox="0 0 22.035 30.162">
<defs>
<g>
<g id="glyph-0-0">
</g>
<g id="glyph-0-1">
<path d="M 2.859375 -6.8125 C 2.859375 -6.8125 2.859375 -6.921875 2.734375 -6.921875 C 2.5 -6.921875 1.78125 -6.84375 1.515625 -6.8125 C 1.4375 -6.8125 1.328125 -6.796875 1.328125 -6.625 C 1.328125 -6.5 1.421875 -6.5 1.5625 -6.5 C 2.046875 -6.5 2.0625 -6.4375 2.0625 -6.328125 L 2.03125 -6.125 L 0.59375 -0.390625 C 0.546875 -0.25 0.546875 -0.234375 0.546875 -0.171875 C 0.546875 0.0625 0.75 0.109375 0.84375 0.109375 C 0.96875 0.109375 1.109375 0.015625 1.171875 -0.09375 C 1.21875 -0.1875 1.671875 -2.03125 1.734375 -2.28125 C 2.078125 -2.25 2.890625 -2.09375 2.890625 -1.4375 C 2.890625 -1.359375 2.890625 -1.328125 2.859375 -1.21875 C 2.84375 -1.109375 2.828125 -0.984375 2.828125 -0.875 C 2.828125 -0.296875 3.21875 0.109375 3.734375 0.109375 C 4.03125 0.109375 4.3125 -0.046875 4.53125 -0.421875 C 4.78125 -0.859375 4.890625 -1.40625 4.890625 -1.421875 C 4.890625 -1.53125 4.796875 -1.53125 4.765625 -1.53125 C 4.671875 -1.53125 4.65625 -1.484375 4.625 -1.34375 C 4.421875 -0.625 4.203125 -0.109375 3.765625 -0.109375 C 3.5625 -0.109375 3.4375 -0.21875 3.4375 -0.578125 C 3.4375 -0.75 3.484375 -0.984375 3.515625 -1.140625 C 3.5625 -1.3125 3.5625 -1.34375 3.5625 -1.453125 C 3.5625 -2.09375 2.9375 -2.375 2.078125 -2.5 C 2.390625 -2.671875 2.71875 -2.984375 2.9375 -3.234375 C 3.421875 -3.765625 3.875 -4.1875 4.359375 -4.1875 C 4.421875 -4.1875 4.4375 -4.1875 4.453125 -4.171875 C 4.578125 -4.15625 4.578125 -4.15625 4.671875 -4.09375 C 4.6875 -4.09375 4.6875 -4.078125 4.703125 -4.0625 C 4.234375 -4.03125 4.140625 -3.640625 4.140625 -3.515625 C 4.140625 -3.359375 4.25 -3.171875 4.515625 -3.171875 C 4.78125 -3.171875 5.0625 -3.390625 5.0625 -3.78125 C 5.0625 -4.078125 4.828125 -4.40625 4.390625 -4.40625 C 4.109375 -4.40625 3.65625 -4.328125 2.9375 -3.53125 C 2.59375 -3.15625 2.203125 -2.75 1.828125 -2.609375 Z M 2.859375 -6.8125 "/>
</g>
<g id="glyph-1-0">
</g>
<g id="glyph-1-1">
<path d="M 2.6875 -6.5625 C 2.6875 -6.734375 2.6875 -6.921875 2.5 -6.921875 C 2.296875 -6.921875 2.296875 -6.734375 2.296875 -6.5625 L 2.296875 0.546875 C 2.046875 0.171875 1.78125 -0.109375 1.53125 -0.296875 C 0.921875 -0.75 0.3125 -0.859375 0.296875 -0.859375 C 0.171875 -0.859375 0.171875 -0.75 0.171875 -0.671875 C 0.171875 -0.515625 0.171875 -0.5 0.40625 -0.421875 C 1.078125 -0.234375 1.46875 0.125 1.6875 0.375 C 2.203125 0.921875 2.328125 1.515625 2.375 1.828125 C 2.390625 1.875 2.421875 1.921875 2.5 1.921875 C 2.578125 1.921875 2.59375 1.859375 2.609375 1.765625 C 2.828125 0.640625 3.546875 -0.140625 4.640625 -0.453125 C 4.796875 -0.5 4.8125 -0.5 4.8125 -0.671875 C 4.8125 -0.75 4.8125 -0.859375 4.6875 -0.859375 C 4.671875 -0.859375 4.078125 -0.75 3.515625 -0.34375 C 3.1875 -0.09375 2.90625 0.203125 2.6875 0.546875 Z M 2.6875 -6.5625 "/>
</g>
</g>
<clipPath id="clip-0">
<path clip-rule="nonzero" d="M 5 0 L 22.035156 0 L 22.035156 30.160156 L 5 30.160156 Z M 5 0 "/>
</clipPath>
<clipPath id="clip-1">
<path clip-rule="nonzero" d="M 0 0 L 22.035156 0 L 22.035156 30.160156 L 0 30.160156 Z M 0 0 "/>
</clipPath>
</defs>
<g clip-path="url(#clip-0)">
<path fill="none" stroke-width="0.79701" stroke-linecap="butt" stroke-linejoin="miter" stroke="rgb(0%, 65.098572%, 92.156982%)" stroke-opacity="1" stroke-miterlimit="10" d="M 0.0015 -0.00096875 C 0.0015 -0.708 1.415562 -1.063469 1.415562 -1.7705 C 1.415562 -2.286125 0.724156 -2.727531 0.0015 -3.188469 C -0.725063 -3.649406 -1.416469 -4.094719 -1.416469 -4.606437 C -1.416469 -5.118156 -0.725063 -5.563469 0.0015 -6.024406 C 0.724156 -6.485344 1.415562 -6.92675 1.415562 -7.442375 C 1.415562 -7.954094 0.724156 -8.3955 0.0015 -8.856437 C -0.725063 -9.321281 -1.416469 -9.762687 -1.416469 -10.274406 C -1.416469 -10.790031 -0.725063 -11.231437 0.0015 -11.692375 C 0.724156 -12.153312 1.415562 -12.598625 1.415562 -13.110344 C 1.415562 -13.622062 0.724156 -14.067375 0.0015 -14.528312 C -0.725063 -14.98925 -1.416469 -15.430656 -1.416469 -15.946281 C -1.416469 -16.458 -0.725063 -16.899406 0.0015 -17.360344 C 0.724156 -17.825187 1.415562 -18.266594 1.415562 -18.778312 C 1.415562 -19.293937 0.724156 -19.735344 0.0015 -20.196281 C -0.725063 -20.657219 -1.416469 -21.102531 -1.416469 -21.61425 C -1.416469 -22.125969 -0.725063 -22.571281 0.0015 -23.032219 C 0.724156 -23.493156 1.415562 -23.934562 1.415562 -24.450187 C 1.415562 -25.157219 0.0015 -25.512687 0.0015 -26.219719 L 0.0015 -28.348625 " transform="matrix(1, 0, 0, -1, 17.811, 1.417)"/>
</g>
<g fill="rgb(0%, 0%, 0%)" fill-opacity="1">
<use xlink:href="#glyph-0-1" x="1.494" y="18.081"/>
</g>
<g fill="rgb(0%, 0%, 0%)" fill-opacity="1">
<use xlink:href="#glyph-1-1" x="8.102" y="18.081"/>
</g>
<g clip-path="url(#clip-1)">
<path fill="none" stroke-width="9.96277" stroke-linecap="butt" stroke-linejoin="miter" stroke="rgb(0%, 65.098572%, 92.156982%)" stroke-opacity="1" stroke-miterlimit="10" d="M 0.00202344 21.420508 L 21.413156 0.009375 L 0.00202344 -21.426172 " transform="matrix(0, 0.16, 0.16, 0, 17.811, 13.87077)"/>
</g>
<path fill-rule="nonzero" fill="rgb(94.900513%, 55.683899%, 0%)" fill-opacity="1" d="M 19.226562 1.417969 C 19.226562 0.632812 18.59375 0 17.8125 0 C 17.027344 0 16.394531 0.632812 16.394531 1.417969 C 16.394531 2.199219 17.027344 2.835938 17.8125 2.835938 C 18.59375 2.835938 19.226562 2.199219 19.226562 1.417969 Z M 19.226562 1.417969 "/>
</svg>
